{
  "profiles": {
    "Otus.Teaching.PromoCodeFactory.IntegrationTests": {
      "commandName": "Project",
      "launchBrowser": true,
      "environmentVariables": {
        "ASPNETCORE_ENVIRONMENT": "Development"
      },
      "applicationUrl": "https://localhost:50853;http://localhost:50854"
    }
  }
}